{
    "name": "google",
    "displayName": "Google Photos",
    "icon": "qrc:/google/icon.svg",
    "optionComponents": [
        "qrc:/google/AlbumSelector.qml",
        "qrc:/Photokinesis/Ui/SizeControl.qml"
    ],
    "supportedOptions": [ "title", "description", "tags", "albums" ]
}
